"User Name","First Name","Last Name","Email Address","Street Address",City," State & Zip Code"
ACole,"Alex ",Cole,ACole@gmail.com,"789 Renaissance Villa",Ankeny," Iowa 50021"
KJohnson,Kirvin,Johnson,thenabsta@gmail.com,"983 NE Renaissance Dr.",Ankeny," Iowa 50021"
JLang,Jessica,Lang,thenabsta@gmail.com,"983 Lake Drive",Ankeny," Iowa 50021"
JMack,Jenny,Mack,thenabsta@gmail.com,"898 NW Renaissance Villa",Ankeny," Iowa 50021"
administrator,Kevin,Nabity,admin@admin.com,"209 SE Renaissance Villas",Ankeny," Iowa 50021"
JSmith,Jacob,Smith,JSmith@hotmail.com,,
GTrinkit,Gary,Trinkit,GTrinkit@gmail.com,,
wdv341,wdv341,wdv341,thenabsta@gmail.com,"983 Lake Drive",Ankeny," Iowa 50021"
